Selection: practical 1
…
The bottom two plots require a little more data cleaning before we can make the plot. Lets consider panel B first, which plots non-synonymous and synonymous \(\pi\) for the MB population. We first need to read in the data and take a look at it:

nonsyn <- read_delim("Tribolium_nonsyn_MB200k.windowed.pi",delim = "\t")
syn <- read_delim("Tribolium_syn_MB200k.windowed.pi",delim = "\t")

syn

## # A tibble: 79 x 5
##    CHROM BIN_START BIN_END N_VARIANTS         PI
##    <chr>     <dbl>   <dbl>      <dbl>      <dbl>
##  1 ChLG2         1  200000         47 0.0000793 
##  2 ChLG2    200001  400000         94 0.000244  
##  3 ChLG2    400001  600000        180 0.000490  
##  4 ChLG2    600001  800000        147 0.000399  
##  5 ChLG2    800001 1000000         24 0.000057  
##  6 ChLG2   1200001 1400000          7 0.0000163 
##  7 ChLG2   1400001 1600000          2 0.00000533
##  8 ChLG2   1600001 1800000         30 0.0000783 
##  9 ChLG2   2000001 2200000        211 0.000558  
## 10 ChLG2   2200001 2400000         54 0.000131  
## #  with 69 more rows

nonsyn

## # A tibble: 78 x 5
##    CHROM BIN_START BIN_END N_VARIANTS        PI
##    <chr>     <dbl>   <dbl>      <dbl>     <dbl>
##  1 ChLG2         1  200000         42 0.000070 
##  2 ChLG2    200001  400000         12 0.0000337
##  3 ChLG2    400001  600000         40 0.000111 
##  4 ChLG2    600001  800000         88 0.000254 
##  5 ChLG2    800001 1000000         63 0.000154 
##  6 ChLG2   1200001 1400000          8 0.0000183
##  7 ChLG2   1400001 1600000         11 0.0000277
##  8 ChLG2   1600001 1800000         65 0.000174 
##  9 ChLG2   2000001 2200000         29 0.0000760
## 10 ChLG2   2200001 2400000         18 0.000049 
## #  with 68 more rows
…
## [1] 18 30 40 55

#And vice versa
which(!(nonsyn$BIN_START %in% syn$BIN_START))

## [1] 36 39 71

This tells us that VCFtools gave us 4 windows with a calculation for \(\pi\) at synonymous sites but not non-synonymous sites, and three windows where \(\pi\) was calculated at non-synonymous sites but not synonymous sites. This is likely to have occurred because there were no synonymous/non-synonymous variants within those particular windows. We may wish to explore why that might be the case, but for now we can simply combine the files. Look up the function left_join() in the tidyverse help pages and see if you can have a go at this. As a hint - you want to join by the columns CHROM, BIN_START and BIN_END.

ns200 <- left_join(nonsyn,syn,by = c("CHROM","BIN_START","BIN_END"))
ns200

## # A tibble: 78 x 7
##    CHROM BIN_START BIN_END N_VARIANTS.x      PI.x N_VARIANTS.y       PI.y
##    <chr>     <dbl>   <dbl>        <dbl>     <dbl>        <dbl>      <dbl>
##  1 ChLG2         1  200000           42 0.000070            47 0.0000793 
##  2 ChLG2    200001  400000           12 0.0000337           94 0.000244  
##  3 ChLG2    400001  600000           40 0.000111           180 0.000490  
##  4 ChLG2    600001  800000           88 0.000254           147 0.000399  
##  5 ChLG2    800001 1000000           63 0.000154            24 0.000057  
##  6 ChLG2   1200001 1400000            8 0.0000183            7 0.0000163 
##  7 ChLG2   1400001 1600000           11 0.0000277            2 0.00000533
##  8 ChLG2   1600001 1800000           65 0.000174            30 0.0000783 
##  9 ChLG2   2000001 2200000           29 0.0000760          211 0.000558  
## 10 ChLG2   2200001 2400000           18 0.000049            54 0.000131  
## #  with 68 more rows

This gives us a single file, with the N_VARIANTS and PI columns from the nonsyn and syn datasets appended with x and y, respectively. Can you figure out what left_join() has done with the non-matching values? Next, try to figure out how to rename the PI columns to something more sensible using rename() from the dplyr library.

ns200 <- dplyr::rename(ns200, NS_pi = "PI.x",S_pi = "PI.y")
ns200

## # A tibble: 78 x 7
##    CHROM BIN_START BIN_END N_VARIANTS.x     NS_pi N_VARIANTS.y       S_pi
##    <chr>     <dbl>   <dbl>        <dbl>     <dbl>        <dbl>      <dbl>
##  1 ChLG2         1  200000           42 0.000070            47 0.0000793 
##  2 ChLG2    200001  400000           12 0.0000337           94 0.000244  
##  3 ChLG2    400001  600000           40 0.000111           180 0.000490  
##  4 ChLG2    600001  800000           88 0.000254           147 0.000399  
##  5 ChLG2    800001 1000000           63 0.000154            24 0.000057  
##  6 ChLG2   1200001 1400000            8 0.0000183            7 0.0000163 
##  7 ChLG2   1400001 1600000           11 0.0000277            2 0.00000533
##  8 ChLG2   1600001 1800000           65 0.000174            30 0.0000783 
##  9 ChLG2   2000001 2200000           29 0.0000760          211 0.000558  
## 10 ChLG2   2200001 2400000           18 0.000049            54 0.000131  
## #  with 68 more rows
…
