Selection: practical 2
…
Your EigenGWAS results (four files, all ending in .egwas)

Now download this file to your laptop using scp or pscp.

We are going to do the plotting slightly differently this time. I will introduce you to some of the plots and functions you can run, then it is up to you to make a publication quality figure from our selection analyses.

Lets first explore our \(F_{ST}\) analyses.

library(tidyverse)
library(cowplot) #for later
pop_fst <- read_delim("GreatTitsUnrel.fst", delim = "\t")
pop_fst

## # A tibble: 343,705 x 5
##      CHR SNP            POS NMISS       FST
##    <dbl> <chr>        <dbl> <dbl>     <dbl>
##  1     1 AX-100678681   511   212  0.0591  
##  2     1 AX-100747228  5379   213 -0.00299 
##  3     1 AX-100836047 21413   213  0.0278  
##  4     1 AX-100918667 23383   213  0.00269 
##  5     1 AX-100974310 26112   213 -0.00516 
##  6     1 AX-100811471 28471   213  0.000778
##  7     1 AX-100414284 35125   212 -0.00255 
##  8     1 AX-100837466 46003   213  0.00660 
##  9     1 AX-100786950 46904   211  0.0805  
## 10     1 AX-100015822 58982   209  0.0469  
## #  with 343,695 more rows
…
What do these distributions tell you about drift and selection in this system?

We can also read in our \(F_{ST}\) values from our admixture populations, in order to compare marker-based \(F_{ST}\) values.

ad_fst <- read_delim("GreatTitsK4.fst", delim = "\t")
ad_fst

## # A tibble: 343,705 x 5
##      CHR SNP            POS NMISS       FST
##    <dbl> <chr>        <dbl> <dbl>     <dbl>
##  1     1 AX-100678681   511   212  0.0179  
##  2     1 AX-100747228  5379   213 -0.000616
##  3     1 AX-100836047 21413   213  0.00803 
##  4     1 AX-100918667 23383   213 -0.0110  
##  5     1 AX-100974310 26112   213 -0.00596 
##  6     1 AX-100811471 28471   213 -0.0110  
##  7     1 AX-100414284 35125   212 -0.00616 
##  8     1 AX-100837466 46003   213  0.0228  
##  9     1 AX-100786950 46904   211  0.0141  
## 10     1 AX-100015822 58982   209  0.0756  
## #  with 343,695 more rows
…
## [1] NA

#Need to remove NAs and try again
pop_fst <- filter(pop_fst,!is.na(FST) & !is.na(ADFST))
cor(pop_fst$FST,pop_fst$ADFST)

## [1] 0.753343

Lets now take a look at the EigenGWAS data. First read in the eigenvector file and look at the data

ev <- read_delim("GreatTitsUnrel.eigenvec", delim = "\t", col_names = F)
ev

## # A tibble: 213 x 7
##    X1                      X2      X3      X4     X5     X6 X7   
##    <chr>                <dbl>   <dbl>   <dbl>  <dbl>  <dbl> <lgl>
##  1 Loch_Lomond_Scotland   238 -0.0277 -0.0991 0.0143 0.0171 NA   
##  2 Loch_Lomond_Scotland   240 -0.0437 -0.247  0.0572 0.0555 NA   
##  3 Loch_Lomond_Scotland   241 -0.0401 -0.238  0.0514 0.0488 NA   
##  4 Loch_Lomond_Scotland   244 -0.0411 -0.228  0.0446 0.0454 NA   
##  5 Loch_Lomond_Scotland   246 -0.0403 -0.230  0.0525 0.0493 NA   
##  6 Loch_Lomond_Scotland   248 -0.0294 -0.158  0.0286 0.0217 NA   
##  7 Loch_Lomond_Scotland   251 -0.0383 -0.184  0.0372 0.0349 NA   
##  8 Loch_Lomond_Scotland   254 -0.0329 -0.160  0.0303 0.0298 NA   
##  9 Loch_Lomond_Scotland   257 -0.0349 -0.174  0.0356 0.0295 NA   
## 10 Loch_Lomond_Scotland   259 -0.0406 -0.250  0.0448 0.0484 NA   
## #  with 203 more rows
…
eg1 <- read_delim("GreatTitsUnrel.1.egwas", delim = "\t")

## Warning: 343705 parsing failures.
## row col   expected     actual                     file
##   1  -- 16 columns 17 columns 'GreatTitsUnrel.1.egwas'
##   2  -- 16 columns 17 columns 'GreatTitsUnrel.1.egwas'
##   3  -- 16 columns 17 columns 'GreatTitsUnrel.1.egwas'
##   4  -- 16 columns 17 columns 'GreatTitsUnrel.1.egwas'
##   5  -- 16 columns 17 columns 'GreatTitsUnrel.1.egwas'
## ... ... .......... .......... ........................
## See problems(...) for more details.

eg1

## # A tibble: 343,705 x 16
##    SNP     CHR    BP RefAllele AltAllele  freq     Beta     SE    Chi      P
##    <chr> <dbl> <dbl> <chr>     <chr>     <dbl>    <dbl>  <dbl>  <dbl>  <dbl>
##  1 AX-1     1   511 C         T         0.179 -1.66e-2 0.0081 4.18   0.0409
##  2 AX-1     1  5379 A         G         0.268 -1.10e-2 0.0073 2.23   0.135 
##  3 AX-1     1 21413 C         G         0.368  6.00e-4 0.0069 0.007  0.933 
##  4 AX-1     1 23383 G         A         0.387 -3.30e-3 0.0066 0.247  0.619 
##  5 AX-1     1 26112 A         G         0.399  1.10e-3 0.0067 0.0253 0.874 
##  6 AX-1     1 28471 T         G         0.441 -1.80e-3 0.0067 0.075  0.784 
##  7 AX-1     1 35125 C         G         0.234 -2.50e-3 0.008  0.0966 0.756 
##  8 AX-1     1 46003 T         C         0.481 -1.65e-2 0.0067 5.98   0.0144
##  9 AX-1     1 46904 G         T         0.434 -1.55e-2 0.0067 5.38   0.0204
## 10 AX-1     1 58982 A         G         0.237  2.00e-4 0.0057 0.0017 0.967 
## #  with 343,695 more rows, and 6 more variables: PGC <dbl>, n1 <dbl>,
## #   freq1 <dbl>, n2 <dbl>, freq2 <dbl>, Fst <dbl>
…
