Population structure: practical
…
We will begin with the IBD plot. Hopefully it is clear that to reproduce this we need pairwise FST values, and corresponding geographic distances between populations. We calculated pairwise FST values using our python scripts. Lets read that output in.

pd <- read_delim("~/Documents/Teaching/PopGenBerlinLGS/session_4_output/pairwise_fst.txt", delim = "\t",col_names = F) #Or wherever you have put this

## Parsed with column specification:
## cols(
##   X1 = col_character(),
##   X2 = col_character(),
##   X3 = col_double()
## )

pd

## # A tibble: 36 x 3
##    X1                 X2                       X3
##    <chr>              <chr>                 <dbl>
##  1 Mariola_Spain      Pirio_Muro_Corsica   0.0361
##  2 Mariola_Spain      Vienna_Austria       0.0122
##  3 Mariola_Spain      Loch_Lomond_Scotland 0.0233
##  4 Mariola_Spain      Oulu_Finland         0.0163
##  5 Mariola_Spain      Vlieland_NL          0.0204
##  6 Mariola_Spain      Montpellier_France   0.0172
##  7 Mariola_Spain      Zurich_Switzerland   0.0164
##  8 Mariola_Spain      Zvenigorod_Russia    0.0126
##  9 Pirio_Muro_Corsica Vienna_Austria       0.0261
## 10 Pirio_Muro_Corsica Loch_Lomond_Scotland 0.0372
## #  with 26 more rows
…
distGeo() calculates the pairwise distance between two points - all you need to do is give it the longitude and latitude of the two points. We have longitude and latitude information in the file LatLong.txt. Read this file into R and take a look at it.

ll <- read_delim("~/Documents/Teaching/PopGenBerlinLGS/session_4_output/LatLong.txt", delim = "\t") #Or wherever you have put this

## Parsed with column specification:
## cols(
##   Pop = col_character(),
##   Lat = col_double(),
##   Long = col_double()
## )

ll

## # A tibble: 27 x 3
##    Pop                    Lat    Long
##    <chr>                <dbl>   <dbl>
##  1 Antwerp_Belgium       51.2   4.39 
##  2 Bulgaria              42.9  25.0  
##  3 Cambridge_UK          52.2   0.152
##  4 Crete                 35.2  25.0  
##  5 Font_Roja_Spain       38.7  -0.544
##  6 Gotland_Sweden        57.5  18.5  
##  7 Harjavalta_Finland    61.3  22.1  
##  8 Italy                 42.4  13.4  
##  9 La_Rouviere_France    43.9   4.24 
## 10 Loch_Lomond_Scotland  56.1  -4.56 
## #  with 17 more rows
…
The only difference between the plot above and the one I maid earlier is that we would like the points to be coloured by a factor called Island. On taking a look at the dataset, I noticed that the highest FST values were all from pairwise comparisons involving the Corsica population. Can you think of a good way to use R to show you this?

pd[order(pd$FST,decreasing = T),]

## # A tibble: 36 x 4
##    p1                   p2                      FST     dist
##    <chr>                <chr>                 <dbl>    <dbl>
##  1 Pirio_Muro_Corsica   Loch_Lomond_Scotland 0.0372 1841551.
##  2 Mariola_Spain        Pirio_Muro_Corsica   0.0361  965861.
##  3 Pirio_Muro_Corsica   Vlieland_NL          0.0343 1275703.
##  4 Pirio_Muro_Corsica   Montpellier_France   0.0304  467186.
##  5 Pirio_Muro_Corsica   Zurich_Switzerland   0.0303  587823.
##  6 Pirio_Muro_Corsica   Oulu_Finland         0.0298 2750359.
##  7 Pirio_Muro_Corsica   Zvenigorod_Russia    0.0270 2508037.
##  8 Pirio_Muro_Corsica   Vienna_Austria       0.0261  886960.
##  9 Mariola_Spain        Loch_Lomond_Scotland 0.0233 2065095.
## 10 Loch_Lomond_Scotland Vlieland_NL          0.0210  690005.
## #  with 26 more rows
…
